(kicad_symbol_lib (version 20211014) (generator SamacSys_ECAD_Model)
  (symbol "TPSM82903SISR" (in_bom yes) (on_board yes)
    (property "Reference" "PS" (at 36.83 7.62 0)
      (effects (font (size 1.27 1.27)) (justify left top))
    )
    (property "Value" "TPSM82903SISR" (at 36.83 5.08 0)
      (effects (font (size 1.27 1.27)) (justify left top))
    )
    (property "Footprint" "TPSM82903SISR" (at 36.83 -94.92 0)
      (effects (font (size 1.27 1.27)) (justify left top) hide)
    )
    (property "Datasheet" "https://www.ti.com/lit/ds/symlink/tpsm82903.pdf?ts=1675675915509" (at 36.83 -194.92 0)
      (effects (font (size 1.27 1.27)) (justify left top) hide)
    )
    (property "ki_description" "Switching Voltage Regulators 3-V to 17-V, 3-A, high-efficiency, low-IQ synchronous buck converter module with integrated inductor" (at 36.83 -294.92 0)
      (effects (font (size 1.27 1.27)) (justify left top) hide)
    )
    (property "Height" "1.6" (at 36.83 -394.92 0)
      (effects (font (size 1.27 1.27)) (justify left top) hide)
    )
    (property "Mouser Part Number" "595-TPSM82903SISR" (at 36.83 -494.92 0)
      (effects (font (size 1.27 1.27)) (justify left top) hide)
    )
    (property "Mouser Price/Stock" "https://www.mouser.co.uk/ProductDetail/Texas-Instruments/TPSM82903SISR?qs=IPgv5n7u5QZzFdkAEGNjcA%3D%3D" (at 36.83 -594.92 0)
      (effects (font (size 1.27 1.27)) (justify left top) hide)
    )
    (property "Manufacturer_Name" "Texas Instruments" (at 36.83 -694.92 0)
      (effects (font (size 1.27 1.27)) (justify left top) hide)
    )
    (property "Manufacturer_Part_Number" "TPSM82903SISR" (at 36.83 -794.92 0)
      (effects (font (size 1.27 1.27)) (justify left top) hide)
    )
    (rectangle
      (start 5.08 2.54)
      (end 35.56 -15.24)
      (stroke (width 0.254) (type default))
      (fill (type background))
    )
    (pin passive line (at 0 0 0) (length 5.08)
      (name "VIN_1" (effects (font (size 1.27 1.27))))
      (number "1" (effects (font (size 1.27 1.27))))
    )
    (pin passive line (at 0 -2.54 0) (length 5.08)
      (name "VIN_2" (effects (font (size 1.27 1.27))))
      (number "2" (effects (font (size 1.27 1.27))))
    )
    (pin passive line (at 0 -5.08 0) (length 5.08)
      (name "EN" (effects (font (size 1.27 1.27))))
      (number "3" (effects (font (size 1.27 1.27))))
    )
    (pin passive line (at 0 -7.62 0) (length 5.08)
      (name "MODE/S-CONF" (effects (font (size 1.27 1.27))))
      (number "4" (effects (font (size 1.27 1.27))))
    )
    (pin passive line (at 0 -10.16 0) (length 5.08)
      (name "SS/TR" (effects (font (size 1.27 1.27))))
      (number "5" (effects (font (size 1.27 1.27))))
    )
    (pin passive line (at 0 -12.7 0) (length 5.08)
      (name "PG" (effects (font (size 1.27 1.27))))
      (number "6" (effects (font (size 1.27 1.27))))
    )
    (pin passive line (at 40.64 0 180) (length 5.08)
      (name "FB/VSET" (effects (font (size 1.27 1.27))))
      (number "7" (effects (font (size 1.27 1.27))))
    )
    (pin passive line (at 40.64 -2.54 180) (length 5.08)
      (name "SW/NC" (effects (font (size 1.27 1.27))))
      (number "8" (effects (font (size 1.27 1.27))))
    )
    (pin passive line (at 40.64 -5.08 180) (length 5.08)
      (name "VOUT_1" (effects (font (size 1.27 1.27))))
      (number "9" (effects (font (size 1.27 1.27))))
    )
    (pin passive line (at 40.64 -7.62 180) (length 5.08)
      (name "VOUT_2" (effects (font (size 1.27 1.27))))
      (number "10" (effects (font (size 1.27 1.27))))
    )
    (pin passive line (at 40.64 -10.16 180) (length 5.08)
      (name "GND" (effects (font (size 1.27 1.27))))
      (number "11" (effects (font (size 1.27 1.27))))
    )
  )
)
